{    
    "back_ginkgo": "4:REDMI NOTE 8:AI QUAD CAMERA:48MP QUAD CAMERA",
    "back_sirius": "2:SHOT ON MI 8 SE:AI DUAL CAMERA:48MP DUAL CAMERA",
    "ginkgo_a_l_h_l": "350",
    "ginkgo_a_l_l_l": "380",
    "ginkgo_c_0x01_p_g_a_v": "287",
    "ginkgo_c_0x02_p_c_r_v": "0.89495",
    "ginkgo_c_0x03": "true",
    "ginkgo_c_0x06": "true",
    "ginkgo_c_0x0b": "80",
    "ginkgo_c_0x0c": "true",
    "ginkgo_c_0x10": "false",
    "ginkgo_c_0x11": "true",
    "ginkgo_c_0x14": "true",
    "ginkgo_c_0x1c": "true",
    "ginkgo_c_0x22": "true",
    "ginkgo_c_0x30": "3.2",
    "ginkgo_c_0x31": "true",
    "ginkgo_c_0x32": "true",
    "ginkgo_c_0x36": "false",
    "ginkgo_c_0x40": "v0",
    "ginkgo_c_0x45": "true",
    "ginkgo_c_0x4a": "true",
    "ginkgo_c_0x4a_1": "true",
    "ginkgo_c_0x50": "true",
    "ginkgo_c_0x51": "true",
    "ginkgo_c_0x53": "true",
    "ginkgo_c_0x57": "7500000",
    "ginkgo_c_0x5a": "8500000",
    "ginkgo_c_13254_0x01": "true",
    "ginkgo_c_19039_0x0004": "1:8000x6000",
    "ginkgo_c_19039_0x0005": "1",
    "ginkgo_c_22367_0x000b": "0.6:1.0:2.0",
    "ginkgo_c_22367_0x000c": "capture_inner:0.6:1:2:5:10;capture_ruler:4:10:10:5",
    "ginkgo_c_22756_0x0001": "1.0:2.0",
    "ginkgo_c_28041_0x0000": "3",
    "ginkgo_c_d_e_f_w": "true",
    "ginkgo_i_l_m_d": "true",
    "ginkgo_live_activation_id": "100079",
    "ginkgo_live_activation_license": "7ac2284d55330de408d7b1a714d8ec3135019be24db678c9535487bd8ec7bbf5f4e86cce375a9ef468253bc178bd2bec9205752e299978158dffa86f8e1adbdf82eeb9246e0a9b92cdf8b83838778b0e",
    "ginkgo_o_0x00_s_s_l": "true",
    "ginkgo_o_0x05_is_support_optical_zoom": "false",
    "ginkgo_o_0x06_is_support_peaking_mf": "true",
    "ginkgo_o_0x08_is_support_dynamic_light_spot": "false",
    "ginkgo_o_0x12_magic_mirror": "false",
    "ginkgo_o_0x13_age_detection": "false",
    "ginkgo_o_0x14_burst_count": "20",
    "ginkgo_o_0x15_support_dual_sd_card": "true",
    "ginkgo_parallel_maxAcquireCount": "8",
    "ginkgo_parallel_maxDequeueCount": "2",
    "ginkgo_s_a": "true",
    "ginkgo_s_a_u": "true",
    "ginkgo_s_b_m_d_t": "1000",
    "ginkgo_s_b_m_s_c": "3",
    "ginkgo_s_c_w_b": "true",
    "ginkgo_s_c_w_m": "true",
    "ginkgo_s_f_a": "true",
    "ginkgo_s_f_s": "true",
    "ginkgo_s_f_s_2_s_t": "500",
    "ginkgo_s_i_a": "true",
    "ginkgo_s_m_f": "true",
    "ginkgo_s_o_a_w": "false",
    "ginkgo_s_p_a": "true",
    "ginkgo_s_p_r_n": "8",
    "ginkgo_s_s_m_t": "true",
    "ginkgo_s_s_n": "true",
    "ginkgo_s_u_w": "true",
    "sirius_a_l_h_l": "300",
    "sirius_a_l_l_l": "350",
    "sirius_c_0x00_s_l_s": "true",
    "sirius_c_0x02_p_c_r_v": "0.8333",
    "sirius_c_0x07": "true",
    "sirius_c_0x14": "true",
    "sirius_c_0x37": "true",
    "sirius_c_0x4a": "true",
    "sirius_c_16001_0x0001": "true",
    "sirius_c_16001_0x0002": "false",
    "sirius_c_19039_0x0018": "true",
    "sirius_c_r_i_m_m": "true",
    "sirius_s_f_a": "true",
    "sirius_s_o_a_w": "false",
    "sirius_s_s_m_t": "true",
    "sirius_s_s_n": "true",
    "sirius_s_z_m": "true",    
}
